{
    "var_dict": {
        "NOMINAL": "nominal",
        "ScaleEBUp": "ScaleEB_up",
        "ScaleEBDown": "ScaleEB_down",
        "ScaleEEUp": "ScaleEE_up",
        "ScaleEEDown": "ScaleEE_down",
        "SmearingUp": "Smearing_up",
        "SmearingDown": "Smearing_down",
        "MaterialUp": "Material_up", 
        "MaterialDown": "Material_down",
        "FNUFUp": "FNUF_up", 
        "FNUFDown": "FNUF_down",
        "energyErrShiftUp": "energyErrShift_up",
        "energyErrShiftDown": "energyErrShift_down"
    }
}